simulation/qsim/SevenSeg.msim.vcd
$comment
	File created using the following command:
		vcd file SevenSeg.msim.vcd -direction
$end
$date
	Sun May 10 07:14:49 2020
$end
$version
	ModelSim Version 10.1d
$end
$timescale
	1ps
$end
$scope module main_vlg_vec_tst $end
$var reg 1 ! clk $end
$var reg 1 " Clk_Reset $end
$var wire 1 # Reset_sec $end
$var wire 1 $ seg1_A $end
$var wire 1 % seg1_B $end
$var wire 1 & seg1_C $end
$var wire 1 ' seg1_D $end
$var wire 1 ( seg1_E $end
$var wire 1 ) seg1_F $end
$var wire 1 * seg1_G $end
$var wire 1 + seg1_P $end
$var wire 1 , seg2_A $end
$var wire 1 - seg2_B $end
$var wire 1 . seg2_C $end
$var wire 1 / seg2_D $end
$var wire 1 0 seg2_E $end
$var wire 1 1 seg2_F $end
$var wire 1 2 seg2_G $end
$var wire 1 3 seg2_P $end
$var wire 1 4 seg3_A $end
$var wire 1 5 seg3_B $end
$var wire 1 6 seg3_C $end
$var wire 1 7 seg3_D $end
$var wire 1 8 seg3_E $end
$var wire 1 9 seg3_F $end
$var wire 1 : seg3_G $end
$var wire 1 ; seg3_P $end
$var wire 1 < sampler $end
$scope module i1 $end
$var wire 1 = gnd $end
$var wire 1 > vcc $end
$var wire 1 ? unknown $end
$var tri1 1 @ devclrn $end
$var tri1 1 A devpor $end
$var tri1 1 B devoe $end
$var wire 1 C inst|Add0~1_cout $end
$var wire 1 D inst|Add0~2_combout $end
$var wire 1 E inst|Add0~3 $end
$var wire 1 F inst|Add0~4_combout $end
$var wire 1 G inst|Add0~5 $end
$var wire 1 H inst|Add0~6_combout $end
$var wire 1 I inst|Add0~7 $end
$var wire 1 J inst|Add0~8_combout $end
$var wire 1 K inst|Add0~9 $end
$var wire 1 L inst|Add0~10_combout $end
$var wire 1 M inst|Add0~11 $end
$var wire 1 N inst|Add0~12_combout $end
$var wire 1 O inst|Add0~13 $end
$var wire 1 P inst|Add0~14_combout $end
$var wire 1 Q inst|Add0~15 $end
$var wire 1 R inst|Add0~16_combout $end
$var wire 1 S inst|Add0~17 $end
$var wire 1 T inst|Add0~18_combout $end
$var wire 1 U inst|Add0~19 $end
$var wire 1 V inst|Add0~20_combout $end
$var wire 1 W inst|Add0~21 $end
$var wire 1 X inst|Add0~22_combout $end
$var wire 1 Y inst|Add0~23 $end
$var wire 1 Z inst|Add0~24_combout $end
$var wire 1 [ inst|Add0~25 $end
$var wire 1 \ inst|Add0~26_combout $end
$var wire 1 ] inst|Add0~27 $end
$var wire 1 ^ inst|Add0~28_combout $end
$var wire 1 _ inst|Add0~29 $end
$var wire 1 ` inst|Add0~30_combout $end
$var wire 1 a inst|Add0~31 $end
$var wire 1 b inst|Add0~32_combout $end
$var wire 1 c inst|Add0~33 $end
$var wire 1 d inst|Add0~34_combout $end
$var wire 1 e inst|Add0~35 $end
$var wire 1 f inst|Add0~36_combout $end
$var wire 1 g inst|Add0~37 $end
$var wire 1 h inst|Add0~38_combout $end
$var wire 1 i inst|Add0~39 $end
$var wire 1 j inst|Add0~40_combout $end
$var wire 1 k inst|Add0~41 $end
$var wire 1 l inst|Add0~42_combout $end
$var wire 1 m inst|Add0~43 $end
$var wire 1 n inst|Add0~44_combout $end
$var wire 1 o inst|Add0~45 $end
$var wire 1 p inst|Add0~46_combout $end
$var wire 1 q inst|Add0~47 $end
$var wire 1 r inst|Add0~48_combout $end
$var wire 1 s inst|Add0~49 $end
$var wire 1 t inst|Add0~50_combout $end
$var wire 1 u inst|Add0~51 $end
$var wire 1 v inst|Add0~52_combout $end
$var wire 1 w inst|Add0~53 $end
$var wire 1 x inst|Add0~54_combout $end
$var wire 1 y inst|Add0~55 $end
$var wire 1 z inst|Add0~56_combout $end
$var wire 1 { inst|Add0~57 $end
$var wire 1 | inst|Add0~58_combout $end
$var wire 1 } inst|Add0~59 $end
$var wire 1 ~ inst|Add0~60_combout $end
$var wire 1 !! inst|Add0~61 $end
$var wire 1 "! inst|Add0~62_combout $end
$var wire 1 #! inst5|inst4|41~0_combout $end
$var wire 1 $! inst5|inst1|45~0_combout $end
$var wire 1 %! inst5|inst1|41~0_combout $end
$var wire 1 &! inst|tmp~regout $end
$var wire 1 '! inst|Equal0~0_combout $end
$var wire 1 (! inst|Equal0~1_combout $end
$var wire 1 )! inst|Equal0~2_combout $end
$var wire 1 *! inst|Equal0~3_combout $end
$var wire 1 +! inst|Equal0~4_combout $end
$var wire 1 ,! inst|Equal0~5_combout $end
$var wire 1 -! inst|Equal0~6_combout $end
$var wire 1 .! inst|Equal0~7_combout $end
$var wire 1 /! inst|Equal0~8_combout $end
$var wire 1 0! inst|Equal0~9_combout $end
$var wire 1 1! inst|tmp~0_combout $end
$var wire 1 2! inst|count~0_combout $end
$var wire 1 3! inst|count~1_combout $end
$var wire 1 4! inst|count~2_combout $end
$var wire 1 5! inst|count~3_combout $end
$var wire 1 6! inst|count~4_combout $end
$var wire 1 7! inst|count[0]~5_combout $end
$var wire 1 8! clk~combout $end
$var wire 1 9! Clk_Reset~combout $end
$var wire 1 :! inst|tmp~clkctrl_outclk $end
$var wire 1 ;! clk~clkctrl_outclk $end
$var wire 1 <! inst7|inst2~0_combout $end
$var wire 1 =! inst7|inst4~0_combout $end
$var wire 1 >! inst7|inst4~regout $end
$var wire 1 ?! inst10|LPM_COMPARE_component|auto_generated|aneb_result_wire[0]~0_combout $end
$var wire 1 @! inst7|inst~0_combout $end
$var wire 1 A! inst7|inst~regout $end
$var wire 1 B! inst7|inst8~0_combout $end
$var wire 1 C! inst7|inst8~regout $end
$var wire 1 D! inst7|inst13~combout $end
$var wire 1 E! inst7|inst14~0_combout $end
$var wire 1 F! inst7|inst14~regout $end
$var wire 1 G! inst10|LPM_COMPARE_component|auto_generated|aneb_result_wire[0]~1_combout $end
$var wire 1 H! inst7|inst2~regout $end
$var wire 1 I! inst7|inst6~0_combout $end
$var wire 1 J! inst7|inst6~regout $end
$var wire 1 K! inst7|inst7~combout $end
$var wire 1 L! inst7|inst10~0_combout $end
$var wire 1 M! inst7|inst10~regout $end
$var wire 1 N! inst7|inst12~0_combout $end
$var wire 1 O! inst7|inst12~regout $end
$var wire 1 P! inst5|inst4|43~0_combout $end
$var wire 1 Q! inst5|inst4|43~1_combout $end
$var wire 1 R! inst5|inst4|43~2_combout $end
$var wire 1 S! inst5|inst1|43~1_combout $end
$var wire 1 T! inst5|inst1|43~0_combout $end
$var wire 1 U! inst5|inst1|43~2_combout $end
$var wire 1 V! inst5|inst1|41~1_combout $end
$var wire 1 W! inst5|inst4|41~1_combout $end
$var wire 1 X! inst5|inst4|41~2_combout $end
$var wire 1 Y! inst5|inst1|41~2_combout $end
$var wire 1 Z! inst5|inst1|45~1_combout $end
$var wire 1 [! inst1|38~0_combout $end
$var wire 1 \! inst1|81~combout $end
$var wire 1 ]! inst1|82~0_combout $end
$var wire 1 ^! inst1|5~0_combout $end
$var wire 1 _! inst1|84~0_combout $end
$var wire 1 `! inst1|85~combout $end
$var wire 1 a! inst1|86~combout $end
$var wire 1 b! inst1|87~combout $end
$var wire 1 c! inst5|inst4|45~1_combout $end
$var wire 1 d! inst5|inst4|45~0_combout $end
$var wire 1 e! inst5|inst4|45~2_combout $end
$var wire 1 f! inst5|inst1|82~0_combout $end
$var wire 1 g! inst5|inst4|81~1_combout $end
$var wire 1 h! inst5|inst4|81~0_combout $end
$var wire 1 i! inst5|inst4|81~2_combout $end
$var wire 1 j! inst5|inst4|82~0_combout $end
$var wire 1 k! inst2|2~0_combout $end
$var wire 1 l! inst5|inst2|43~0_combout $end
$var wire 1 m! inst5|inst1|81~1_combout $end
$var wire 1 n! inst5|inst1|81~0_combout $end
$var wire 1 o! inst5|inst1|81~2_combout $end
$var wire 1 p! inst5|inst2|41~0_combout $end
$var wire 1 q! inst2|81~combout $end
$var wire 1 r! inst2|82~combout $end
$var wire 1 s! inst2|6~combout $end
$var wire 1 t! inst2|84~0_combout $end
$var wire 1 u! inst2|85~combout $end
$var wire 1 v! inst2|86~0_combout $end
$var wire 1 w! inst2|87~combout $end
$var wire 1 x! inst5|inst4|48~combout $end
$var wire 1 y! inst3|5~combout $end
$var wire 1 z! inst3|6~3_combout $end
$var wire 1 {! inst3|6~combout $end
$var wire 1 |! inst5|inst2|81~0_combout $end
$var wire 1 }! inst3|86~3_combout $end
$var wire 1 ~! inst3|86~12_combout $end
$var wire 1 !" inst10|LPM_COMPARE_component|auto_generated|aneb_result_wire [0] $end
$var wire 1 "" inst|count [31] $end
$var wire 1 #" inst|count [30] $end
$var wire 1 $" inst|count [29] $end
$var wire 1 %" inst|count [28] $end
$var wire 1 &" inst|count [27] $end
$var wire 1 '" inst|count [26] $end
$var wire 1 (" inst|count [25] $end
$var wire 1 )" inst|count [24] $end
$var wire 1 *" inst|count [23] $end
$var wire 1 +" inst|count [22] $end
$var wire 1 ," inst|count [21] $end
$var wire 1 -" inst|count [20] $end
$var wire 1 ." inst|count [19] $end
$var wire 1 /" inst|count [18] $end
$var wire 1 0" inst|count [17] $end
$var wire 1 1" inst|count [16] $end
$var wire 1 2" inst|count [15] $end
$var wire 1 3" inst|count [14] $end
$var wire 1 4" inst|count [13] $end
$var wire 1 5" inst|count [12] $end
$var wire 1 6" inst|count [11] $end
$var wire 1 7" inst|count [10] $end
$var wire 1 8" inst|count [9] $end
$var wire 1 9" inst|count [8] $end
$var wire 1 :" inst|count [7] $end
$var wire 1 ;" inst|count [6] $end
$var wire 1 <" inst|count [5] $end
$var wire 1 =" inst|count [4] $end
$var wire 1 >" inst|count [3] $end
$var wire 1 ?" inst|count [2] $end
$var wire 1 @" inst|count [1] $end
$var wire 1 A" inst|count [0] $end
$upscope $end
$upscope $end
$enddefinitions $end
#0
$dumpvars
0!
1"
0#
0$
0%
0&
0'
0(
0)
1*
1+
0,
0-
0.
0/
00
01
12
13
04
05
06
07
08
09
1:
1;
x<
0=
1>
x?
1@
1A
1B
1C
1D
1E
0F
0G
0H
1I
0J
0K
0L
1M
0N
0O
0P
1Q
0R
0S
0T
1U
0V
0W
0X
1Y
0Z
0[
0\
1]
0^
0_
0`
1a
0b
0c
0d
1e
0f
0g
0h
1i
0j
0k
0l
1m
0n
0o
0p
1q
0r
0s
0t
1u
0v
0w
0x
1y
0z
0{
0|
1}
0~
0!!
0"!
0#!
0$!
0%!
0&!
1'!
1(!
1)!
1*!
1+!
0,!
0-!
0.!
0/!
00!
01!
02!
03!
04!
05!
06!
17!
08!
19!
0:!
0;!
0<!
0=!
0>!
1?!
1@!
0A!
0B!
0C!
0D!
0E!
0F!
0G!
0H!
0I!
0J!
0K!
0L!
0M!
0N!
0O!
0P!
1Q!
0R!
0S!
0T!
0U!
0V!
0W!
0X!
0Y!
0Z!
1[!
0\!
0]!
0^!
0_!
0`!
0a!
1b!
0c!
0d!
0e!
0f!
1g!
0h!
1i!
0j!
1k!
0l!
1m!
0n!
1o!
0p!
0q!
0r!
0s!
0t!
0u!
0v!
1w!
1x!
1y!
0z!
0{!
1|!
0}!
0~!
0!"
0A"
0@"
0?"
0>"
0="
0<"
0;"
0:"
09"
08"
07"
06"
05"
04"
03"
02"
01"
00"
0/"
0."
0-"
0,"
0+"
0*"
0)"
0("
0'"
0&"
0%"
0$"
0#"
0""
$end
#15000
1!
18!
1;!
0<
#30000
0!
08!
0;!
1<
#45000
1!
18!
1;!
0<
#60000
0!
08!
0;!
1<
#75000
1!
18!
1;!
0<
#90000
0!
08!
0;!
1<
#105000
1!
18!
1;!
0<
#120000
0!
08!
0;!
1<
#135000
1!
18!
1;!
0<
#150000
0!
08!
0;!
1<
#165000
1!
18!
1;!
0<
#180000
0!
08!
0;!
1<
#195000
1!
18!
1;!
0<
#210000
0!
08!
0;!
1<
#225000
1!
18!
1;!
0<
#240000
0!
08!
0;!
1<
#255000
1!
18!
1;!
0<
#270000
0!
08!
0;!
1<
#285000
1!
18!
1;!
0<
#300000
0!
08!
0;!
1<
#315000
1!
18!
1;!
0<
#330000
0!
08!
0;!
1<
#345000
1!
18!
1;!
0<
#360000
0!
08!
0;!
1<
#375000
1!
18!
1;!
0<
#390000
0!
08!
0;!
1<
#405000
1!
18!
1;!
0<
#420000
0!
08!
0;!
1<
#435000
1!
18!
1;!
0<
#450000
0!
08!
0;!
1<
#465000
1!
18!
1;!
0<
#480000
0!
08!
0;!
1<
#495000
1!
18!
1;!
0<
#510000
0!
08!
0;!
1<
#525000
1!
18!
1;!
0<
#540000
0!
08!
0;!
1<
#555000
1!
18!
1;!
0<
#570000
0!
08!
0;!
1<
#585000
1!
18!
1;!
0<
#600000
0!
08!
0;!
1<
#615000
1!
18!
1;!
0<
#630000
0!
08!
0;!
1<
#645000
1!
18!
1;!
0<
#660000
0!
08!
0;!
1<
#675000
1!
18!
1;!
0<
#690000
0!
08!
0;!
1<
#705000
1!
18!
1;!
0<
#720000
0!
08!
0;!
1<
#735000
1!
18!
1;!
0<
#750000
0!
08!
0;!
1<
#765000
1!
18!
1;!
0<
#780000
0!
08!
0;!
1<
#795000
1!
18!
1;!
0<
#810000
0!
08!
0;!
1<
#825000
1!
18!
1;!
0<
#840000
0!
08!
0;!
1<
#855000
1!
18!
1;!
0<
#870000
0!
08!
0;!
1<
#885000
1!
18!
1;!
0<
#900000
0!
08!
0;!
1<
#915000
1!
18!
1;!
0<
#930000
0!
08!
0;!
1<
#945000
1!
18!
1;!
0<
#960000
0!
08!
0;!
1<
#975000
1!
18!
1;!
0<
#990000
0!
08!
0;!
1<
